2019-06-07 13:49:43 [127.0.0.1][6][-][error][yii\web\HttpException:404] yii\base\InvalidRouteException: Unable to resolve the request "static/css/bootstrap.css.map". in F:\xampp7.2\htdocs\project\zoshop\vendor\yiisoft\yii2\base\Module.php:537
Stack trace:
#0 F:\xampp7.2\htdocs\project\zoshop\vendor\yiisoft\yii2\web\Application.php(103): yii\base\Module->runAction('static/css/boot...', Array)
#1 F:\xampp7.2\htdocs\project\zoshop\vendor\yiisoft\yii2\base\Application.php(386): yii\web\Application->handleRequest(Object(yii\web\Request))
#2 F:\xampp7.2\htdocs\project\zoshop\frontend\web\index.php(18): yii\base\Application->run()
#3 {main}

Next yii\web\NotFoundHttpException: Không tìm thấy trang. in F:\xampp7.2\htdocs\project\zoshop\vendor\yiisoft\yii2\web\Application.php:115
Stack trace:
#0 F:\xampp7.2\htdocs\project\zoshop\vendor\yiisoft\yii2\base\Application.php(386): yii\web\Application->handleRequest(Object(yii\web\Request))
#1 F:\xampp7.2\htdocs\project\zoshop\frontend\web\index.php(18): yii\base\Application->run()
#2 {main}
2019-06-07 13:49:43 [127.0.0.1][6][-][info][application] $_GET = []

$_POST = []

$_FILES = []

$_COOKIE = [
    'site_banner' => '1559837031538'
    'PHPSESSID' => '01k54doq6gcfueqarighfnh76j'
    '_csrf' => 'e90be967fa97bb28e20bb5671f1299e0e82a74aaf6b32d89bd844b0b9305cef0a:2:{i:0;s:5:\"_csrf\";i:1;s:32:\"t627khPjQUpHkIgO5Kfw_YexWhGzTpz-\";}'
]

$_SESSION = [
    '__flash' => []
    '__returnUrl' => '/khach-hang.html'
    '__id' => 6
]

$_SERVER = [
    'REDIRECT_MIBDIRS' => 'F:/xampp7.2/php/extras/mibs'
    'REDIRECT_MYSQL_HOME' => '\\xampp\\mysql\\bin'
    'REDIRECT_OPENSSL_CONF' => 'F:/xampp7.2/apache/bin/openssl.cnf'
    'REDIRECT_PHP_PEAR_SYSCONF_DIR' => '\\xampp\\php'
    'REDIRECT_PHPRC' => '\\xampp\\php'
    'REDIRECT_TMP' => '\\xampp\\tmp'
    'REDIRECT_STATUS' => '200'
    'MIBDIRS' => 'F:/xampp7.2/php/extras/mibs'
    'MYSQL_HOME' => '\\xampp\\mysql\\bin'
    'OPENSSL_CONF' => 'F:/xampp7.2/apache/bin/openssl.cnf'
    'PHP_PEAR_SYSCONF_DIR' => '\\xampp\\php'
    'PHPRC' => '\\xampp\\php'
    'TMP' => '\\xampp\\tmp'
    'HTTP_HOST' => 'zoshop.local'
    'HTTP_CONNECTION' => 'keep-alive'
    'HTTP_CACHE_CONTROL' => 'no-cache'
    'HTTP_USER_AGENT' => 'Mozilla/5.0 (Windows NT 10.0; Win64; x64) AppleWebKit/537.36 (KHTML, like Gecko) Chrome/75.0.3770.80 Safari/537.36'
    'HTTP_ACCEPT_ENCODING' => 'gzip, deflate'
    'HTTP_ACCEPT_LANGUAGE' => 'vi-VN,vi;q=0.9,fr-FR;q=0.8,fr;q=0.7,en-US;q=0.6,en;q=0.5'
    'HTTP_COOKIE' => 'site_banner=1559837031538; PHPSESSID=01k54doq6gcfueqarighfnh76j; _csrf=e90be967fa97bb28e20bb5671f1299e0e82a74aaf6b32d89bd844b0b9305cef0a%3A2%3A%7Bi%3A0%3Bs%3A5%3A%22_csrf%22%3Bi%3A1%3Bs%3A32%3A%22t627khPjQUpHkIgO5Kfw_YexWhGzTpz-%22%3B%7D'
    'PATH' => 'C:\\Python27\\;C:\\Python27\\Scripts;C:\\windows\\system32;C:\\windows;C:\\windows\\System32\\Wbem;C:\\windows\\System32\\WindowsPowerShell\\v1.0\\;C:\\Program Files\\dotnet\\;C:\\Program Files (x86)\\Microsoft SQL Server\\110\\Tools\\Binn\\;C:\\Program Files\\Microsoft SQL Server\\110\\Tools\\Binn\\;C:\\Program Files\\Microsoft SQL Server\\110\\DTS\\Binn\\;C:\\Program Files (x86)\\Microsoft SQL Server\\110\\Tools\\Binn\\ManagementStudio\\;C:\\Program Files (x86)\\Microsoft Visual Studio 10.0\\Common7\\IDE\\PrivateAssemblies\\;C:\\Program Files (x86)\\Microsoft SQL Server\\110\\DTS\\Binn\\;F:\\xampp\\php;F:\\composer;F:\\Git\\cmd;C:\\Program Files\\Microsoft SQL Server\\130\\Tools\\Binn\\;C:\\ProgramData\\chocolatey\\bin;C:\\Program Files\\Java\\jdk1.8.0_191\\bin;C:\\Android\\android-sdk\\tools;C:\\Android\\android-sdk\\platform-tools;C:\\Android\\android-sdk\\tools\\bin;;C:\\Program Files (x86)\\NVIDIA Corporation\\PhysX\\Common;C:\\Program Files\\nodejs\\;F:\\Microsoft VS Code\\bin;C:\\Users\\vinhn\\AppData\\Roaming\\Composer\\vendor\\bin;F:\\Microsoft VS Code\\bin;C:\\Users\\vinhn\\AppData\\Roaming\\npm'
    'SystemRoot' => 'C:\\windows'
    'COMSPEC' => 'C:\\windows\\system32\\cmd.exe'
    'PATHEXT' => '.COM;.EXE;.BAT;.CMD;.VBS;.VBE;.JS;.JSE;.WSF;.WSH;.MSC'
    'WINDIR' => 'C:\\windows'
    'SERVER_SIGNATURE' => '<address>Apache/2.4.38 (Win64) OpenSSL/1.1.1b PHP/7.2.16 Server at zoshop.local Port 80</address>
'
    'SERVER_SOFTWARE' => 'Apache/2.4.38 (Win64) OpenSSL/1.1.1b PHP/7.2.16'
    'SERVER_NAME' => 'zoshop.local'
    'SERVER_ADDR' => '127.0.0.1'
    'SERVER_PORT' => '80'
    'REMOTE_ADDR' => '127.0.0.1'
    'DOCUMENT_ROOT' => 'F:/xampp7.2/htdocs/project/zoshop/frontend/web'
    'REQUEST_SCHEME' => 'http'
    'CONTEXT_PREFIX' => ''
    'CONTEXT_DOCUMENT_ROOT' => 'F:/xampp7.2/htdocs/project/zoshop/frontend/web'
    'SERVER_ADMIN' => 'webmaster@dummy-host.example.com'
    'SCRIPT_FILENAME' => 'F:/xampp7.2/htdocs/project/zoshop/frontend/web/index.php'
    'REMOTE_PORT' => '54421'
    'REDIRECT_URL' => '/static/css/bootstrap.css.map'
    'GATEWAY_INTERFACE' => 'CGI/1.1'
    'SERVER_PROTOCOL' => 'HTTP/1.1'
    'REQUEST_METHOD' => 'GET'
    'QUERY_STRING' => ''
    'REQUEST_URI' => '/static/css/bootstrap.css.map'
    'SCRIPT_NAME' => '/index.php'
    'PHP_SELF' => '/index.php'
    'REQUEST_TIME_FLOAT' => 1559890183.762
    'REQUEST_TIME' => 1559890183
]
